"Employee_number","Email","SamAccountName","Supervisory_Organization","Last Day of Work","Termination Date","DP_type","Source","ReportDate"
"09008331","admin17@company.com","09008331","UQAU","2023-07-30","2023-07-30","1111","Workday","2023-06-25"
"08394773","admin15.highpoint@company.com","08394773"," ","2023-07-30","2023-07-30","1100","Form","2023-06-25"
"12319082","admin0016@company.com","12319082"," ","2023-07-30","2023-07-30","1111","Form","2023-06-25"
